…
We should label our graphs and charts. We can put the important
information in and the rest of what we were exploring later. When we
present we will export the charts/graphs.

CODE TO ORGANIZE DATA:

``` r
energy_use %>%
  filter(between(`Delivery Date`, as.Date('2022-01-01'), as.Date('2023-01-01'))) 
```

    ## # A tibble: 221 × 10
    ##    `Delivery Date`     `Fuel Type`   `Tank number` Building  Gallons `Unit Cost`
    ##    <dttm>              <chr>         <chr>         <chr>       <dbl>       <dbl>
    ##  1 2022-01-06 00:00:00 DYEDKEROSENE  Tank26        Witchcli…    62.2        3.26
    ##  2 2022-01-06 00:00:00 DYEDKEROSENE  Tank27        Witchcli…   125.         3.26
    ##  3 2022-01-06 00:00:00 LIQUIDPROPANE Tank37        Turrets …   232.         1.80
    ##  4 2022-01-06 00:00:00 LIQUIDPROPANE Tank8         Arts & S…   583.         1.80
    ##  5 2022-01-07 00:00:00 LIQUIDPROPANE Tank31        Davis Vi…    89.1        1.79
    ##  6 2022-01-07 00:00:00 #2HEATINGOIL  Tank33        PRF         179.         2.94
    ##  7 2022-01-07 00:00:00 LIQUIDPROPANE Tank35        B&G          21.1        1.79
    ##  8 2022-01-08 00:00:00 #2HEATINGOIL  Tank24        Dorr NHM     47.7        2.85
    ##  9 2022-01-12 00:00:00 LIQUIDPROPANE Tank10        Hatchery     25.4        1.84
    ## 10 2022-01-13 00:00:00 #2HEATINGOIL  Tank24        Dorr NHM    132.         2.98
    ## # ℹ 211 more rows
    ## # ℹ 4 more variables: Cost <dbl>, ...8 <lgl>, ...9 <chr>, ...10 <chr>
…
                               TRUE ~ Building)) %>% mutate() %>%
select(-c(`...8`,`...9`,`...10`))
  #distinct(Building)
```

``` r
new_data %>%
  group_by(Building) %>%
  summarize(total_gallons = sum(Gallons, na.rm = FALSE)) %>%
arrange(desc(total_gallons))
```

    ## # A tibble: 27 × 2
    ##    Building           total_gallons
    ##    <chr>                      <dbl>
    ##  1 Arts & Sci + Gates       144394.
    ##  2 Kaelber                  103610.
    ##  3 Blair Tyson               73379.
    ##  4 Turrets                   45894.
    ##  5 Dorr NHM                  40871.
    ##  6 Seafox                    38715.
    ##  7 Davis Center              31814.
    ##  8 Davis Village             27151.
    ##  9 Witchcliff                12952.
    ## 10 PRF                       10892.
    ## # ℹ 17 more rows

``` r
new_data %>%
  group_by(Building) %>%
  summarize(total_gals = sum(Gallons, na.rm = TRUE)) %>%
  drop_na()
```

    ## # A tibble: 26 × 2
    ##    Building                    total_gals
    ##    <chr>                            <dbl>
    ##  1 171 Beech Hill Road              1783 
    ##  2 Arts & Sci + Gates             144394.
    ##  3 B&G                              8993.
    ##  4 BHF Farm House                    808.
    ##  5 BHF Main Bldg/2 Greenhouses      3393.
    ##  6 BHF New Greenhouse               6005.
    ##  7 Blair Tyson                     73379.
    ##  8 CHE Generator                     224.
    ##  9 Carriage                         6432.
    ## 10 Cottage                          6868.
    ## # ℹ 16 more rows
…
``` r
#class exercise to view type of variables
```

``` r
energy_use %>%
  filter(between(`Delivery Date`, as.Date('2022-01-01'), as.Date('2023-01-01'))) 
```

    ## # A tibble: 221 × 10
    ##    `Delivery Date`     `Fuel Type`   `Tank number` Building  Gallons `Unit Cost`
    ##    <dttm>              <chr>         <chr>         <chr>       <dbl>       <dbl>
    ##  1 2022-01-06 00:00:00 DYEDKEROSENE  Tank26        Witchcli…    62.2        3.26
    ##  2 2022-01-06 00:00:00 DYEDKEROSENE  Tank27        Witchcli…   125.         3.26
    ##  3 2022-01-06 00:00:00 LIQUIDPROPANE Tank37        Turrets …   232.         1.80
    ##  4 2022-01-06 00:00:00 LIQUIDPROPANE Tank8         Arts & S…   583.         1.80
    ##  5 2022-01-07 00:00:00 LIQUIDPROPANE Tank31        Davis Vi…    89.1        1.79
    ##  6 2022-01-07 00:00:00 #2HEATINGOIL  Tank33        PRF         179.         2.94
    ##  7 2022-01-07 00:00:00 LIQUIDPROPANE Tank35        B&G          21.1        1.79
    ##  8 2022-01-08 00:00:00 #2HEATINGOIL  Tank24        Dorr NHM     47.7        2.85
    ##  9 2022-01-12 00:00:00 LIQUIDPROPANE Tank10        Hatchery     25.4        1.84
    ## 10 2022-01-13 00:00:00 #2HEATINGOIL  Tank24        Dorr NHM    132.         2.98
    ## # ℹ 211 more rows
    ## # ℹ 4 more variables: Cost <dbl>, ...8 <lgl>, ...9 <chr>, ...10 <chr>
…
